module github.com/Noah-Heil/phren

go 1.20

require (
	github.com/fatih/color v1.16.0
	github.com/mitchellh/go-homedir v1.1.0
	github.com/sirupsen/logrus v1.9.3
	github.com/spf13/cobra v1.8.0
	github.com/spf13/viper v1.18.2
	go.opentelemetry.io/otel v1.21.0
	go.opentelemetry.io/otel/exporters/stdout/stdoutmetric v0.44.0
	go.opentelemetry.io/otel/exporters/stdout/stdouttrace v1.21.0
	go.opentelemetry.io/otel/sdk v1.21.0
	go.opentelemetry.io/otel/sdk/metric v1.21.0
	gopkg.in/yaml.v3 v3.0.1
)

require (
	github.com/fsnotify/fsnotify v1.7.0 // indirect
	github.com/go-logr/logr v1.3.0 // indirect
	github.com/go-logr/stdr v1.2.2 // indirect
	github.com/hashicorp/hcl v1.0.0 // indirect
	github.com/inconshreveable/mousetrap v1.1.0 // indirect
	github.com/magiconair/properties v1.8.7 // indirect
	github.com/mattn/go-colorable v0.1.13 // indirect
	github.com/mattn/go-isatty v0.0.20 // indirect
	github.com/mitchellh/mapstructure v1.5.0 // indirect
	github.com/pelletier/go-toml/v2 v2.1.0 // indirect
	github.com/sagikazarmark/locafero v0.4.0 // indirect
	github.com/sagikazarmark/slog-shim v0.1.0 // indirect
	github.com/sourcegraph/conc v0.3.0 // indirect
	github.com/spf13/afero v1.11.0 // indirect
	github.com/spf13/cast v1.6.0 // indirect
	github.com/spf13/pflag v1.0.5 // indirect
	github.com/subosito/gotenv v1.6.0 // indirect
	go.opentelemetry.io/otel/metric v1.21.0 // indirect
	go.opentelemetry.io/otel/trace v1.21.0 // indirect
	go.uber.org/atomic v1.9.0 // indirect
	go.uber.org/multierr v1.9.0 // indirect
	golang.org/x/exp v0.0.0-20230905200255-921286631fa9 // indirect
	golang.org/x/sys v0.15.0 // indirect
	golang.org/x/text v0.14.0 // indirect
	gopkg.in/ini.v1 v1.67.0 // indirect
)
